{
  "type": "service_account",
  "project_id": "angular-demo-8117d",
  "private_key_id": "5095ca4481a4a7a753e1152d4c7d85e449436da1",
  "private_key": "-----BEGIN PRIVATE KEY-----\nMIIEvQIBADANBgkqhkiG9w0BAQEFAASCBKcwggSjAgEAAoIBAQDVl0NCl+s+WgRx\ne2YqBIj31n3Keb5BtMdhwHHbsrxKG2aVo+S6D+9uW7DjYSv8ZTh1GWasTdYk0liK\nWyFaSNyDl5hlGuwYnv3POPz2I0a1d4JVVEdwkQSOSz3QLPRAsN/7IwPGiWYgQRI6\na6PtnYK+av5Z+haVREq+Dm2y5x6pB4fOKGNdInJMhHiqfduUaX7gMD4U5wdkXZhW\nwkMVXI6P9v+nh57VBhGdHwYImXds0+ZmwruzUqT2UIfHFfU9rjSbmvTtVxiCE+/A\nEdUMy1lE7NLJ/m7z2mgt7ni20dtqTobtmWATO4rzV3KSKGGM7uoSuikL3qjBev7/\n3Shr0b2xAgMBAAECggEAMfT5sds3lfNXA7XxjNVXteQQsulrsxGV6sqottKk0I59\nHXXiexRcE4tVobEqKRQBsv3YcmeYNS+PrvimoefVz9+GsOstmoqhYbT6EZXppWsI\n7G1UckMw9hkqIYVKMdFM6f/kE60yWkvt+AUSJ/MF0ATVbfUdEBeThcV5KfV9ydnA\nKU9yc0vCZIGnTYegU9hvbh6c/yFp/4fRJ03AJk7/uhi4yNUA0bgeGQp0UUyTBN9h\nVs6TSQ8Mq9ljJhTH9RA6sS76F5wNRX4lViCTSI+U9jMmXjHC26PyFx6irLKdb0tG\n/JS3IGr0NsMDW+BbDJgRKr4I2plgkVBFrtpv+gLQuQKBgQDsFBqvdv4LZ5jo2zFt\nlfY2lUZgXNQXhI3JK/wVgEMnqPGsGr0+W/Lc/RKlpr4moxwRHRyEEk4u1wDs+Dt8\nI67ZwY31nY7tXD1sHaWBM3Y9J27iAaYjsHIXtVFDyRUNxwN2/4dGbWraKFLEsogU\nbWwBfmY69/wGYq0pZpWPd03F1QKBgQDnnV4uGpilQEG3dGWKuFGb1opzqgWKbOu/\nLqrDp+bn+U8lesYXLWERe9tJWPLVYJ70H3BsDyvL7MoqGBRqjsJCOChZS3Q3C+T6\n5CJnBPL7s86DU8/lkJGpdfz/kEylY+J30gSk5dHzBnhBgM2ajsd+rHlYxxDI0i04\nwiLu9zl6bQKBgQCHJeM4+/fnc4E4HPOo9qajDMXjOIE6jWnV9tYzQOAw/iiMDCq2\nXlEkbcSVDGXjHJFewrmmagxUCEXBY0I6iPr6MjIgn/hIrfuDv10WH+3aiI6T17nS\nyJooNGa3VZA1+O5k21gH22/GQDtR25rHhvTDziacL4cZ6LeU8eNA5F2jmQKBgCyD\nFt1/aQShM8ABE560S6LKeXM/Iq92vVvRqSnO89ZzGF3YmYdMxlHo3rza5lhRqFq8\nTAvIYp9fU38Bf7L22qiFSGPY123Y0FnTTDVGQzhSVwbwLY0t2oCZ11R6M/C5IIXs\ni83xCQdOn//etCTW+coDdZK1NymREvXMgZAxXQ+FAoGASuMnWFDuox2O4bcXeZeV\nNs7+UWRvu5J2KdVs2eyf3EIo6H7uAC03sY83ZIRdx4nknjEcvPDzlXvcD6omQ38g\nDr0m9bzySrvJx7QFuDoKAMAMgu5VH66RvU0CRuWbVcwsuGTb9pw4Exj7oneVhvsf\nqdCkDhTE4AjUji26ltUmpGc=\n-----END PRIVATE KEY-----\n",
  "client_email": "firebase-adminsdk-ukil5@angular-demo-8117d.iam.gserviceaccount.com",
  "client_id": "109667611943481165714",
  "auth_uri": "https://accounts.google.com/o/oauth2/auth",
  "token_uri": "https://oauth2.googleapis.com/token",
  "auth_provider_x509_cert_url": "https://www.googleapis.com/oauth2/v1/certs",
  "client_x509_cert_url": "https://www.googleapis.com/robot/v1/metadata/x509/firebase-adminsdk-ukil5%40angular-demo-8117d.iam.gserviceaccount.com"
}
